/nethome/iwilbur3/cse6230fa17-proj1-iwilbur3
deepthought1
Mon Sep 18 22:26:22 EDT 2017
rm -f out.xyz && OMP_NUM_THREADS="4" OMP_PROC_BIND=spread ./harness volume_frac_20.xyz out.xyz 21
Number of particles: 10000
Number of intervals to simulate: 21
Simulation box width: 59.386291
With 10000 particles of radius 1 and a box width of 59.386291, the volume fraction is 0.2.
The interaction volume is 33.5103, so we expect 1.6 interactions per particle, 8000 overall.
Allocating space for 200000 interactions
Time: 96.784453 for 21 intervals
Time per time step: 0.00460878
Mon Sep 18 22:27:58 EDT 2017
